module gitlab.com/gogolok/update-sheet-cell

go 1.17

require (
	github.com/spf13/cobra v1.3.0
	golang.org/x/oauth2 v0.0.0-20211104180415-d3ed0bb246c8
	google.golang.org/api v0.63.0
)

require (
	cloud.google.com/go v0.99.0 // indirect
	github.com/golang/groupcache v0.0.0-20210331224755-41bb18bfe9da // indirect
	github.com/golang/protobuf v1.5.2 // indirect
	github.com/googleapis/gax-go/v2 v2.1.1 // indirect
	github.com/inconshreveable/mousetrap v1.0.0 // indirect
	github.com/spf13/pflag v1.0.5 // indirect
	gitlab.com/gogolok/finance-lsquote v1.0.0 // indirect
	go.opencensus.io v0.23.0 // indirect
	golang.org/x/net v0.0.0-20211216030914-fe4d6282115f // indirect
	golang.org/x/sys v0.0.0-20211216021012-1d35b9e2eb4e // indirect
	golang.org/x/text v0.3.7 // indirect
	google.golang.org/appengine v1.6.7 // indirect
	google.golang.org/genproto v0.0.0-20211223182754-3ac035c7e7cb // indirect
	google.golang.org/grpc v1.43.0 // indirect
	google.golang.org/protobuf v1.27.1 // indirect
)
